%YAML 1.1
%TAG !u! tag:unity3d.com,2011:
--- !u!213 &21300000
Sprite:
  m_ObjectHideFlags: 0
  m_CorrespondingSourceObject: {fileID: 0}
  m_PrefabInstance: {fileID: 0}
  m_PrefabAsset: {fileID: 0}
  m_Name: NES - Gradius - Gradius_240
  m_Rect:
    serializedVersion: 2
    x: 74
    y: 894
    width: 48
    height: 13
  m_Offset: {x: 0, y: 0}
  m_Border: {x: 0, y: 0, z: 0, w: 0}
  m_PixelsToUnits: 100
  m_Pivot: {x: 0.5, y: 0.5}
  m_Extrude: 1
  m_IsPolygon: 0
  m_AtlasName: 
  m_PackingTag: 
  m_RenderDataKey:
    4f35165a9d3f983408e9097a52393cb5: 6139817993341518256
  m_AtlasTags: []
  m_SpriteAtlas: {fileID: 0}
  m_RD:
    serializedVersion: 3
    texture: {fileID: 2800000, guid: 4f35165a9d3f983408e9097a52393cb5, type: 3}
    alphaTexture: {fileID: 0}
    secondaryTextures: []
    m_SubMeshes:
    - serializedVersion: 2
      firstByte: 0
      indexCount: 6
      topology: 0
      baseVertex: 0
      firstVertex: 0
      vertexCount: 4
      localAABB:
        m_Center: {x: 0, y: 0, z: 0}
        m_Extent: {x: 0, y: 0, z: 0}
    m_IndexBuffer: 000001000200020001000300
    m_VertexData:
      serializedVersion: 3
      m_VertexCount: 4
      m_Channels:
      - stream: 0
        offset: 0
        format: 0
        dimension: 3
      - stream: 0
        offset: 0
        format: 0
        dimension: 0
      - stream: 0
        offset: 0
        format: 0
        dimension: 0
      - stream: 0
        offset: 0
        format: 0
        dimension: 0
      - stream: 1
        offset: 0
        format: 0
        dimension: 2
      - stream: 0
        offset: 0
        format: 0
        dimension: 0
      - stream: 0
        offset: 0
        format: 0
        dimension: 0
      - stream: 0
        offset: 0
        format: 0
        dimension: 0
      - stream: 0
        offset: 0
        format: 0
        dimension: 0
      - stream: 0
        offset: 0
        format: 0
        dimension: 0
      - stream: 0
        offset: 0
        format: 0
        dimension: 0
      - stream: 0
        offset: 0
        format: 0
        dimension: 0
      - stream: 0
        offset: 0
        format: 0
        dimension: 0
      - stream: 0
        offset: 0
        format: 0
        dimension: 0
      m_DataSize: 80
      _typelessdata: 8fc275beb81e853d000000008fc2753eb81e853d000000008fc275beb81e85bd000000008fc2753eb81e85bd000000007353d13d6afe333f708d2c3e6afe333f7353d13df969313f708d2c3ef969313f
    m_Bindpose: []
    textureRect:
      serializedVersion: 2
      x: 74
      y: 894
      width: 48
      height: 13
    textureRectOffset: {x: 0, y: 0}
    atlasRectOffset: {x: -1, y: -1}
    settingsRaw: 64
    uvTransform: {x: 100, y: 98, z: 100, w: 900.5}
    downscaleMultiplier: 1
  m_AtlasRD:
    serializedVersion: 3
    texture: {fileID: 2800000, guid: 4f35165a9d3f983408e9097a52393cb5, type: 3}
    alphaTexture: {fileID: 0}
    secondaryTextures: []
    m_SubMeshes:
    - serializedVersion: 2
      firstByte: 0
      indexCount: 6
      topology: 0
      baseVertex: 0
      firstVertex: 0
      vertexCount: 4
      localAABB:
        m_Center: {x: 0, y: 0, z: 0}
        m_Extent: {x: 0, y: 0, z: 0}
    m_IndexBuffer: 000001000200020001000300
    m_VertexData:
      serializedVersion: 3
      m_VertexCount: 4
      m_Channels:
      - stream: 0
        offset: 0
        format: 0
        dimension: 3
      - stream: 0
        offset: 0
        format: 0
        dimension: 0
      - stream: 0
        offset: 0
        format: 0
        dimension: 0
      - stream: 0
        offset: 0
        format: 0
        dimension: 0
      - stream: 1
        offset: 0
        format: 0
        dimension: 2
      - stream: 0
        offset: 0
        format: 0
        dimension: 0
      - stream: 0
        offset: 0
        format: 0
        dimension: 0
      - stream: 0
        offset: 0
        format: 0
        dimension: 0
      - stream: 0
        offset: 0
        format: 0
        dimension: 0
      - stream: 0
        offset: 0
        format: 0
        dimension: 0
      - stream: 0
        offset: 0
        format: 0
        dimension: 0
      - stream: 0
        offset: 0
        format: 0
        dimension: 0
      - stream: 0
        offset: 0
        format: 0
        dimension: 0
      - stream: 0
        offset: 0
        format: 0
        dimension: 0
      m_DataSize: 80
      _typelessdata: 8fc275beb81e853d000000008fc2753eb81e853d000000008fc275beb81e85bd000000008fc2753eb81e85bd000000007353d13d6afe333f708d2c3e6afe333f7353d13df969313f708d2c3ef969313f
    m_Bindpose: []
    textureRect:
      serializedVersion: 2
      x: 74
      y: 894
      width: 48
      height: 13
    textureRectOffset: {x: 0, y: 0}
    atlasRectOffset: {x: -1, y: -1}
    settingsRaw: 64
    uvTransform: {x: 100, y: 98, z: 100, w: 900.5}
    downscaleMultiplier: 1
  m_PhysicsShape:
  - - {x: -0.24, y: 0.065}
    - {x: -0.24, y: -0.065}
    - {x: 0.24, y: -0.065}
    - {x: 0.24, y: 0.065}
  m_Bones: []
  m_SpriteID: 1d80782ae85efa343a3a538ba0b8970a
